2020-02-19 08:15 ; ReporteCTI Llamadas Konecta
2020-02-19 08:56 ; Regla Repetir Discado NPS
2020-02-19 10:41 ; Javier AnyDesk para hacer cotizacion
2020-02-19 11:13 ; Llamando a mesa de ayuda de Carlos Rodriguez para el tema del Token RSA
2020-02-19 11:19 ; Regla Repetir Discado NPS
2020-02-19 11:32 ; Llamando a mesa de ayuda de Carlos Rodriguez para el tema del Token RSA
2020-02-19 12:20 ; Regla Repetir Discado NPS
2020-02-19 13:04 ; almuerzo
2020-02-19 14:03 ; Regla Repetir Discado NPS Javier Anydesk y Christopher
2020-02-19 15:56 ; OpenXML de Javier en Reporte CTI Televentas FOR 400mil revoluciones
2020-02-19 16:07 ; Investigacion cpu friendly infinite loop Tread
2020-02-19 18:45 ; Christopher Shadow en Bulky Pedido de Hans Quispe Cambio Urgente
2020-02-19 19:15 ; Salida