2020-02-10 09:36 ; revisando trello
2020-02-10 10:00 ; Listado de todos los proyectos de Christopher
2020-02-10 10:23 ; Reporte de iteraciones retenciones 2do nivel
2020-02-10 11:23 ; Reunion NPS Interrumpida
2020-02-10 12:01 ; Reporte de Iteraciones Retenciones Agregando Boton
2020-02-10 12:41 ; reunion NPS
2020-02-10 14:00 ; Trello
2020-02-10 14:26 ; reunion NPS Interrumpida
2020-02-10 14:30 ; Reporte de iteraciones retenciones 2do nivel
2020-02-10 18:10 ; Reporte Intentos
2020-02-10 19:31 ; salida