2020-02-17 9:00  ; HLD LLD HandOver Proyecto Calidad NPS
2020-02-17 11:00 ; Fui a Konecta centro de lima con Christopher
2020-02-17 12:30 ; Reportes Llamadas CTI Konecta
2020-02-17 13:00 ; Almuerzo
2020-02-17 14:00 ; Funcionalidad a Reporte Ecommerce de fecha Inicio y Fin Filtros
2020-02-17 15:53 ; PostPago TDE Reporte
2020-02-17 17:22 ; Funcionalidad a Reporte Ecommerce de fecha Inicio y Fin Filtros
2020-02-17 19:20 ; Llegamos a EBD locomocion
2020-02-17 19:25 ; Funcionalidad a Reporte Ecommerce de fecha Inicio y Fin Filtros
2020-02-17 21:10 ; salida